top.test.vcd
$date
	Tue Apr  3 11:44:09 2018
$end
$version
	Icarus Verilog
$end
$timescale
	1ps
$end
$scope module test $end
$scope module top_inst $end
$var wire 8 ! alu_in0 [7:0] $end
$var wire 8 " alu_in1 [7:0] $end
$var wire 4 # alu_op [3:0] $end
$var wire 8 $ alu_out [7:0] $end
$var wire 1 % clk $end
$var wire 8 & dec_data [7:0] $end
$var wire 4 ' dst [3:0] $end
$var wire 1 ( jmp $end
$var wire 12 ) led [11:0] $end
$var wire 1 * link $end
$var wire 1 + load $end
$var wire 1 , mem_io $end
$var wire 8 - mem_io_out [7:0] $end
$var wire 8 . mem_out [7:0] $end
$var wire 1 / mem_we $end
$var wire 16 0 op [15:0] $end
$var wire 5 1 pb [4:0] $end
$var wire 8 2 pb_out [7:0] $end
$var wire 8 3 pc_in [7:0] $end
$var wire 8 4 pc_next [7:0] $end
$var wire 8 5 pc_out [7:0] $end
$var wire 1 6 reg0 $end
$var wire 1 7 reg1 $end
$var wire 8 8 reg_data [7:0] $end
$var wire 8 9 reg_data0 [7:0] $end
$var wire 8 : reg_data1 [7:0] $end
$var wire 8 ; reg_in [7:0] $end
$var wire 1 < reg_we $end
$var wire 1 = rst_n $end
$var wire 4 > src0 [3:0] $end
$var wire 4 ? src1 [3:0] $end
$var wire 1 @ zf $end
$var wire 1 A zf_out $end
$scope module sel_reg0 $end
$var wire 8 B in0 [7:0] $end
$var wire 8 C in1 [7:0] $end
$var wire 1 6 sel $end
$var reg 8 D out [7:0] $end
$upscope $end
$scope module sel_reg1 $end
$var wire 8 E in0 [7:0] $end
$var wire 8 F in1 [7:0] $end
$var wire 1 7 sel $end
$var reg 8 G out [7:0] $end
$upscope $end
$scope module sel_jmp $end
$var wire 8 H in0 [7:0] $end
$var wire 8 I in1 [7:0] $end
$var wire 1 ( sel $end
$var reg 8 J out [7:0] $end
$upscope $end
$scope module sel_link $end
$var wire 8 K in0 [7:0] $end
$var wire 8 L in1 [7:0] $end
$var wire 1 * sel $end
$var reg 8 M out [7:0] $end
$upscope $end
$scope module sel_load $end
$var wire 8 N in0 [7:0] $end
$var wire 8 O in1 [7:0] $end
$var wire 1 + sel $end
$var reg 8 P out [7:0] $end
$upscope $end
$scope module sel_mem $end
$var wire 8 Q in0 [7:0] $end
$var wire 8 R in1 [7:0] $end
$var wire 1 , sel $end
$var reg 8 S out [7:0] $end
$upscope $end
$scope module adec_inst $end
$var wire 8 T addr [7:0] $end
$var reg 1 U mem_io $end
$upscope $end
$scope module register_inst $end
$var wire 1 % clk $end
$var wire 8 V data [7:0] $end
$var wire 8 W data0 [7:0] $end
$var wire 8 X data1 [7:0] $end
$var wire 4 Y dst [3:0] $end
$var wire 8 Z regis0 [7:0] $end
$var wire 8 [ regis1 [7:0] $end
$var wire 8 \ regis2 [7:0] $end
$var wire 8 ] regis3 [7:0] $end
$var wire 8 ^ regis4 [7:0] $end
$var wire 8 _ regis5 [7:0] $end
$var wire 1 = rst_n $end
$var wire 4 ` src0 [3:0] $end
$var wire 4 a src1 [3:0] $end
$var wire 1 < we $end
$upscope $end
$scope module alu_inst $end
$var wire 8 b in0 [7:0] $end
$var wire 8 c in1 [7:0] $end
$var wire 4 d op [3:0] $end
$var reg 8 e out [7:0] $end
$var reg 1 f zf $end
$upscope $end
$scope module memory_inst $end
$var wire 8 g addr [7:0] $end
$var wire 1 % clk $end
$var wire 8 h in [7:0] $end
$var wire 8 i mem0 [7:0] $end
$var wire 8 j mem1 [7:0] $end
$var wire 8 k mem10 [7:0] $end
$var wire 8 l mem11 [7:0] $end
$var wire 8 m mem12 [7:0] $end
$var wire 8 n mem13 [7:0] $end
$var wire 8 o mem14 [7:0] $end
$var wire 8 p mem15 [7:0] $end
$var wire 8 q mem16 [7:0] $end
$var wire 8 r mem17 [7:0] $end
$var wire 8 s mem18 [7:0] $end
$var wire 8 t mem19 [7:0] $end
$var wire 8 u mem2 [7:0] $end
$var wire 8 v mem20 [7:0] $end
$var wire 8 w mem21 [7:0] $end
$var wire 8 x mem22 [7:0] $end
$var wire 8 y mem23 [7:0] $end
$var wire 8 z mem24 [7:0] $end
$var wire 8 { mem25 [7:0] $end
$var wire 8 | mem26 [7:0] $end
$var wire 8 } mem27 [7:0] $end
$var wire 8 ~ mem28 [7:0] $end
$var wire 8 !" mem29 [7:0] $end
$var wire 8 "" mem3 [7:0] $end
$var wire 8 #" mem30 [7:0] $end
$var wire 8 $" mem31 [7:0] $end
$var wire 8 %" mem32 [7:0] $end
$var wire 8 &" mem33 [7:0] $end
$var wire 8 '" mem4 [7:0] $end
$var wire 8 (" mem5 [7:0] $end
$var wire 8 )" mem6 [7:0] $end
$var wire 8 *" mem7 [7:0] $end
$var wire 8 +" mem8 [7:0] $end
$var wire 8 ," mem9 [7:0] $end
$var wire 8 -" out [7:0] $end
$var wire 1 = rst_n $end
$var wire 1 / we $end
$var integer 32 ." i [31:0] $end
$upscope $end
$scope module pb_inst $end
$var wire 8 /" addr [7:0] $end
$var wire 1 % clk $end
$var wire 8 0" out [7:0] $end
$var wire 5 1" pb [4:0] $end
$var wire 1 = rst_n $end
$var reg 12 2" cnt [11:0] $end
$var reg 5 3" state [4:0] $end
$upscope $end
$scope module led_inst $end
$var wire 8 4" addr [7:0] $end
$var wire 1 % clk $end
$var wire 8 5" in [7:0] $end
$var wire 8 6" mem0 [7:0] $end
$var wire 8 7" mem1 [7:0] $end
$var wire 8 8" mem2 [7:0] $end
$var wire 8 9" mem3 [7:0] $end
$var wire 1 = rst_n $end
$var wire 1 / we $end
$var reg 14 :" cnt [13:0] $end
$var reg 12 ;" led [11:0] $end
$upscope $end
$scope module pc_inst $end
$var wire 1 % clk $end
$var wire 8 <" pc_in [7:0] $end
$var wire 1 = rst_n $end
$var reg 8 =" pc_out [7:0] $end
$upscope $end
$scope module imem_inst $end
$var wire 8 >" pc [7:0] $end
$var reg 16 ?" op [15:0] $end
$upscope $end
$scope module zf_inst $end
$var wire 1 % clk $end
$var wire 1 = rst_n $end
$var wire 1 @ zf_in $end
$var reg 1 @" zf_out $end
$upscope $end
$scope module decoder_inst $end
$var wire 16 A" op [15:0] $end
$var wire 1 A zf $end
$var reg 4 B" alu_op [3:0] $end
$var reg 8 C" data [7:0] $end
$var reg 4 D" dst [3:0] $end
$var reg 1 E" jmp $end
$var reg 1 F" link $end
$var reg 1 G" load $end
$var reg 1 H" mem_we $end
$var reg 1 I" reg0 $end
$var reg 1 J" reg1 $end
$var reg 1 K" reg_we $end
$var reg 4 L" src0 [3:0] $end
$var reg 4 M" src1 [3:0] $end
$upscope $end
$upscope $end
$upscope $end
$enddefinitions $end
#0
$dumpvars
bx M"
bx L"
xK"
xJ"
xI"
xH"
xG"
xF"
xE"
bx D"
bx C"
bx B"
bx A"
x@"
bx ?"
bx >"
bx ="
bx <"
bx ;"
bx :"
bz 9"
bz 8"
bz 7"
bz 6"
bx 5"
bx 4"
bx 3"
bx 2"
b0 1"
b0xxxxx 0"
bx /"
bx ."
bx -"
bz ,"
bz +"
bz *"
bz )"
bz ("
bz '"
bz &"
bz %"
bz $"
bz #"
bz ""
bz !"
bz ~
bz }
bz |
bz {
bz z
bz y
bz x
bz w
bz v
bz u
bz t
bz s
bz r
bz q
bz p
bz o
bz n
bz m
bz l
bz k
bz j
bz i
bx h
bx g
xf
bx e
bx d
bx c
bx b
bx a
bx `
bz _
bz ^
bz ]
bz \
bz [
bz Z
bx Y
bx X
bx W
bx V
xU
bx T
b0xxxxx S
b0xxxxx R
bx Q
b0xxxxx P
b0xxxxx O
bx N
bx M
bx L
b0xxxxx K
bx J
bx I
bx H
bx G
bx F
bx E
bx D
bx C
bx B
xA
x@
bx ?
bx >
0=
x<
b0xxxxx ;
bx :
bx 9
bx 8
x7
x6
bx 5
bx 4
bx 3
b0xxxxx 2
b0 1
bx 0
x/
bx .
b0xxxxx -
x,
x+
x*
bx )
x(
bx '
bx &
0%
bx $
bx #
bx "
bx !
$end
#5
0U
0,
1f
1@
b1 e
b0 .
b0 Q
b0 -"
b1 $
b1 I
b1 N
b1 T
b1 g
b1 /"
b1 4"
b1 P
b1 ;
b1 K
b1 D
b1 !
b1 b
b0 S
b0 -
b0 O
b1 M
b1 8
b1 V
b1 J
b1 3
b1 <"
b0 G
b0 "
b0 c
0F"
0*
0G"
0+
0E"
0(
0I"
06
1J"
17
0H"
0/
1K"
1<
b1 C"
b1 &
b1 B
b0 D"
b0 '
b0 Y
b0 L"
b0 9
b0 C
b0 W
b0 h
b0 5"
b0 >
b0 `
b0 M"
b0 :
b0 F
b0 X
b0 ?
b0 a
b1101 B"
b1101 #
b1101 d
b0 2
b0 R
b0 0"
b1 4
b1 E
b1 H
b1 L
b1101000000010000 ?"
b1101000000010000 0
b1101000000010000 A"
b0 _
b0 ^
b0 ]
b0 \
b0 [
b0 Z
b0 &"
b0 %"
b0 $"
b0 #"
b0 !"
b0 ~
b0 }
b0 |
b0 {
b0 z
b0 y
b0 x
b0 w
b0 v
b0 t
b0 s
b0 r
b0 q
b0 p
b0 o
b0 n
b0 m
b0 l
b0 k
b0 ,"
b0 +"
b0 *"
b0 )"
b0 ("
b0 '"
b0 ""
b0 u
b0 j
b10010011 i
b0 3"
b0 2"
b0 ;"
b0 )
b0 :"
b0 9"
b0 8"
b0 7"
b0 6"
b0 ="
b0 5
b0 >"
0@"
0A
b11111111 ."
1%
#10
0%
#15
b11111111 ."
1%
#20
0%
#25
b11111111 ."
1%
#30
0%
#35
b11111111 ."
1%
#40
0%
#45
b11111111 ."
1%
#50
0%
#55
b11111111 ."
1%
#60
0%
#65
b11111111 ."
1%
#70
0%
#75
b11111111 ."
1%
#80
0%
#85
b11111111 ."
1%
#90
0%
#95
b11111111 ."
1%
#100
0%
#105
b11111111 ."
1%
#110
0%
#115
b11111111 ."
1%
#120
0%
#125
b11111111 ."
1%
#130
0%
#135
b11111111 ."
1%
#140
0%
#145
b11111111 ."
1%
#150
1=
0%
#155
b10010100 M
b10010100 8
b10010100 V
b0 S
b0 -
b0 O
b10010100 P
b10010100 ;
b10010100 K
b10010100 D
b10010100 !
b10010100 b
b10 J
b10 3
b10 <"
b10010100 e
b0 .
b0 Q
b0 -"
b10010100 $
b10010100 I
b10010100 N
b10010100 T
b10010100 g
b10010100 /"
b10010100 4"
b10010100 C"
b10010100 &
b10010100 B
b1 D"
b1 '
b1 Y
b1 M"
b1 ?
b1 a
b101 B"
b101 #
b101 d
b10 4
b10 E
b10 H
b10 L
b101000110010100 ?"
b101000110010100 0
b101000110010100 A"
b0 G
b0 "
b0 c
1@"
1A
b1 ="
b1 5
b1 >"
b111000000000 ;"
b111000000000 )
b1 :"
b0 3"
b1 2"
b1 Z
b1 9
b1 C
b1 W
b1 h
b1 5"
b0 :
b0 F
b0 X
1%
#160
0%
#165
b0 M
b0 8
b0 V
b0 S
b0 -
b0 O
b0 P
b0 ;
b0 K
b0 D
b0 !
b0 b
b10010100 e
b0 .
b0 Q
b0 -"
b10010100 $
b10010100 I
b10010100 N
b10010100 T
b10010100 g
b10010100 /"
b10010100 4"
b11 J
b11 3
b11 <"
1G"
1+
b0 C"
b0 &
b0 B
b10 D"
b10 '
b10 Y
b1000 B"
b1000 #
b1000 d
b10010100 G
b10010100 "
b10010100 c
b11 4
b11 E
b11 H
b11 L
b1000000100000010 ?"
b1000000100000010 0
b1000000100000010 A"
b10010100 [
b10010100 :
b10010100 F
b10010100 X
b0 3"
b10 2"
b10 :"
b10 ="
b10 5
b10 >"
1%
#170
0%
#175
b1 S
b1 -
b1 O
b10110100 D
b10110100 !
b10110100 b
0f
0@
b0 e
b1 .
b1 Q
b1 -"
b0 $
b0 I
b0 N
b0 T
b0 g
b0 /"
b0 4"
b100 J
b100 3
b100 <"
0G"
0+
0K"
0<
b10110100 C"
b10110100 &
b10110100 B
b0 D"
b0 '
b0 Y
b111 B"
b111 #
b111 d
b100 4
b100 E
b100 H
b100 L
b111000110110100 ?"
b111000110110100 0
b111000110110100 A"
b11 ="
b11 5
b11 >"
b11 :"
b0 3"
b11 2"
1%
#180
0%
#185
b100101 M
b100101 8
b100101 V
b111 S
b111 -
b111 O
b100101 P
b100101 ;
b100101 K
b100101 D
b100101 !
b100101 b
1f
1@
b100101 e
b111 .
b111 Q
b111 -"
b100101 $
b100101 I
b100101 N
b100101 T
b100101 g
b100101 /"
b100101 4"
b101 J
b101 3
b101 <"
b101 G
b101 "
b101 c
0J"
07
1K"
1<
b100101 C"
b100101 &
b100101 B
b1111 D"
b1111 '
b1111 Y
b0 M"
b1 :
b1 F
b1 X
b0 ?
b0 a
b1100 B"
b1100 #
b1100 d
b101 4
b101 E
b101 H
b101 L
b1100001001011111 ?"
b1100001001011111 0
b1100001001011111 A"
b0 3"
b100 2"
b100 :"
b100 ="
b100 5
b100 >"
0@"
0A
1%
#190
0%
#195
b10010101 M
b10010101 8
b10010101 V
b1 S
b1 -
b1 O
b10010101 P
b10010101 ;
b10010101 K
b1 D
b1 !
b1 b
b10010101 e
b1 .
b1 Q
b1 -"
b10010101 $
b10010101 I
b10010101 N
b10010101 T
b10010101 g
b10010101 /"
b10010101 4"
b110 J
b110 3
b110 <"
b10010100 G
b10010100 "
b10010100 c
1J"
17
b1 C"
b1 &
b1 B
b1 D"
b1 '
b1 Y
b1 M"
b10010100 :
b10010100 F
b10010100 X
b1 ?
b1 a
b101 B"
b101 #
b101 d
b110 4
b110 E
b110 H
b110 L
b101000100000001 ?"
b101000100000001 0
b101000100000001 A"
1@"
1A
b101 ="
b101 5
b101 >"
b101 :"
b0 3"
b101 2"
1%
#200
0%
#205
b1 M
b1 8
b1 V
b1 S
b1 -
b1 O
b1 P
b1 ;
b1 K
b0 D
b0 !
b0 b
b10010101 e
b1 .
b1 Q
b1 -"
b10010101 $
b10010101 I
b10010101 N
b10010101 T
b10010101 g
b10010101 /"
b10010101 4"
b111 J
b111 3
b111 <"
1G"
1+
b0 C"
b0 &
b0 B
b101 D"
b101 '
b101 Y
b1000 B"
b1000 #
b1000 d
b10010101 G
b10010101 "
b10010101 c
b111 4
b111 E
b111 H
b111 L
b1000000100000101 ?"
b1000000100000101 0
b1000000100000101 A"
b10010101 [
b10010101 :
b10010101 F
b10010101 X
b0 3"
b110 2"
b110 :"
b110 ="
b110 5
b110 >"
1%
#210
0%
#215
b0 M
b0 8
b0 V
b0 P
b0 ;
b0 K
0f
0@
b1 S
b1 -
b1 O
b1 D
b1 !
b1 b
b0 e
b1 .
b1 Q
b1 -"
b0 $
b0 I
b0 N
b0 T
b0 g
b0 /"
b0 4"
b1000 J
b1000 3
b1000 <"
b1 G
b1 "
b1 c
0G"
0+
b1 C"
b1 &
b1 B
b101 M"
b1 :
b1 F
b1 X
b101 ?
b101 a
b110 B"
b110 #
b110 d
b1000 4
b1000 E
b1000 H
b1000 L
b110010100000001 ?"
b110010100000001 0
b110010100000001 A"
b111 ="
b111 5
b111 >"
b111 :"
b0 3"
b111 2"
b1 _
1%
#220
0%
#225
b0 M
b0 8
b0 V
b1 S
b1 -
b1 O
b0 P
b0 ;
b0 K
b10010101 D
b10010101 !
b10010101 b
0f
0@
b0 e
b1 .
b1 Q
b1 -"
b0 $
b0 I
b0 N
b0 T
b0 g
b0 /"
b0 4"
b1001 J
b1001 3
b1001 <"
b10010101 C"
b10010101 &
b10010101 B
b1 D"
b1 '
b1 Y
b1 M"
b1 ?
b1 a
b10010101 G
b10010101 "
b10010101 c
b1001 4
b1001 E
b1001 H
b1001 L
b110000110010101 ?"
b110000110010101 0
b110000110010101 A"
b0 _
b10010101 :
b10010101 F
b10010101 X
b0 3"
b1000 2"
b1000 :"
b1000 ="
b1000 5
b1000 >"
0@"
0A
1%
#230
0%
#235
b1 M
b1 8
b1 V
b0 D
b0 !
b0 b
b1 S
b1 -
b1 O
b1 P
b1 ;
b1 K
b1010 J
b1010 3
b1010 <"
1G"
1+
b0 C"
b0 &
b0 B
b11 D"
b11 '
b11 Y
b10 M"
b10 ?
b10 a
b1000 B"
b1000 #
b1000 d
0f
0@
b0 e
b1 .
b1 Q
b1 -"
b0 $
b0 I
b0 N
b0 T
b0 g
b0 /"
b0 4"
b1010 4
b1010 E
b1010 H
b1010 L
b1000001000000011 ?"
b1000001000000011 0
b1000001000000011 A"
b0 G
b0 "
b0 c
b1001 ="
b1001 5
b1001 >"
b1001 :"
b0 3"
b1001 2"
b0 [
b0 :
b0 F
b0 X
1%
#240
0%
#245
b10110110 M
b10110110 8
b10110110 V
b10110110 P
b10110110 ;
b10110110 K
b0 S
b0 -
b0 O
b10110101 D
b10110101 !
b10110101 b
1f
1@
b10110110 e
b0 .
b0 Q
b0 -"
b10110110 $
b10110110 I
b10110110 N
b10110110 T
b10110110 g
b10110110 /"
b10110110 4"
b1011 J
b1011 3
b1011 <"
b1 G
b1 "
b1 c
0G"
0+
b10110101 C"
b10110101 &
b10110101 B
b11 M"
b1 :
b1 F
b1 X
b11 ?
b11 a
b101 B"
b101 #
b101 d
b1011 4
b1011 E
b1011 H
b1011 L
b101001110110101 ?"
b101001110110101 0
b101001110110101 A"
b1 ]
b0 3"
b1010 2"
b1010 :"
b1010 ="
b1010 5
b1010 >"
1%
#250
0%
#255
b0 M
b0 8
b0 V
b0 S
b0 -
b0 O
b0 P
b0 ;
b0 K
b0 D
b0 !
b0 b
b1100 J
b1100 3
b1100 <"
b10110110 e
b0 .
b0 Q
b0 -"
b10110110 $
b10110110 I
b10110110 N
b10110110 T
b10110110 g
b10110110 /"
b10110110 4"
1G"
1+
b0 C"
b0 &
b0 B
b100 D"
b100 '
b100 Y
b1000 B"
b1000 #
b1000 d
b1100 4
b1100 E
b1100 H
b1100 L
b1000001100000100 ?"
b1000001100000100 0
b1000001100000100 A"
b10110110 G
b10110110 "
b10110110 c
1@"
1A
b1011 ="
b1011 5
b1011 >"
b1011 :"
b0 3"
b1011 2"
b10110110 ]
b10110110 :
b10110110 F
b10110110 X
1%
#260
0%
#265
b1 S
b1 -
b1 O
0f
0@
b0 e
b1 .
b1 Q
b1 -"
b0 $
b0 I
b0 N
b0 T
b0 g
b0 /"
b0 4"
b1101 J
b1101 3
b1101 <"
b1 G
b1 "
b1 c
0G"
0+
1I"
16
0K"
0<
b0 D"
b0 '
b0 Y
b100 L"
b0 9
b0 C
b0 W
b0 h
b0 5"
b100 >
b100 `
b0 M"
b1 :
b1 F
b1 X
b0 ?
b0 a
b100 B"
b100 #
b100 d
b1101 4
b1101 E
b1101 H
b1101 L
b100000001000000 ?"
b100000001000000 0
b100000001000000 A"
b0 3"
b1100 2"
b1100 :"
b1100 ="
b1100 5
b1100 >"
1%
#270
0%
#275
b11000 M
b11000 8
b11000 V
b1001 S
b1001 -
b1001 O
b11000 P
b11000 ;
b11000 K
1f
1@
b11000 e
b1001 .
b1001 Q
b1001 -"
b11000 $
b11000 I
b11000 N
b11000 T
b11000 g
b11000 /"
b11000 4"
b11000 D
b11000 !
b11000 b
b1110 J
b1110 3
b1110 <"
b1110 G
b1110 "
b1110 c
0I"
06
0J"
07
1K"
1<
b11000 C"
b11000 &
b11000 B
b1111 D"
b1111 '
b1111 Y
b0 L"
b1 9
b1 C
b1 W
b1 h
b1 5"
b0 >
b0 `
b1100 B"
b1100 #
b1100 d
b1110 4
b1110 E
b1110 H
b1110 L
b1100000110001111 ?"
b1100000110001111 0
b1100000110001111 A"
0@"
0A
b1101 ="
b1101 5
b1101 >"
b1101 :"
b0 3"
b1101 2"
1%
#280
0%
#285
b0 S
b0 -
b0 O
b1 P
b1 ;
b1 K
b0 D
b0 !
b0 b
1f
1@
b1 e
b0 .
b0 Q
b0 -"
b1 $
b1 I
b1 N
b1 T
b1 g
b1 /"
b1 4"
b0 G
b0 "
b0 c
1I"
16
1J"
17
0K"
0<
b0 C"
b0 &
b0 B
b0 D"
b0 '
b0 Y
b101 L"
b0 9
b0 C
b0 W
b0 h
b0 5"
b101 >
b101 `
b10 M"
b0 :
b0 F
b0 X
b10 ?
b10 a
b100 B"
b100 #
b100 d
b1 M
b1 8
b1 V
b1111 J
b1111 3
b1111 <"
b1111 4
b1111 E
b1111 H
b1111 L
b100001001010000 ?"
b100001001010000 0
b100001001010000 A"
0F"
0*
0E"
0(
b0 3"
b1110 2"
b1110 :"
b1110 ="
b1110 5
b1110 >"
1@"
1A
1%
#290
0%
#295
b111 S
b111 -
b111 O
b10010 P
b10010 ;
b10010 K
b10010 D
b10010 !
b10010 b
1f
1@
b10010 e
b111 .
b111 Q
b111 -"
b10010 $
b10010 I
b10010 N
b10010 T
b10010 g
b10010 /"
b10010 4"
b10000 M
b10000 8
b10000 V
b10010 J
b10010 3
b10010 <"
b10000 G
b10000 "
b10000 c
1F"
1*
1E"
1(
0I"
06
0J"
07
1K"
1<
b10010 C"
b10010 &
b10010 B
b1111 D"
b1111 '
b1111 Y
b0 L"
b1 9
b1 C
b1 W
b1 h
b1 5"
b0 >
b0 `
b0 M"
b1 :
b1 F
b1 X
b0 ?
b0 a
b1100 B"
b1100 #
b1100 d
b10000 4
b10000 E
b10000 H
b10000 L
b1100000100101111 ?"
b1100000100101111 0
b1100000100101111 A"
b1111 ="
b1111 5
b1111 >"
b1111 :"
b0 3"
b1111 2"
1%
#300
0%
#305
b0 S
b0 -
b0 O
b10110101 P
b10110101 ;
b10110101 K
b10110101 e
b0 .
b0 Q
b0 -"
b10110101 $
b10110101 I
b10110101 N
b10110101 T
b10110101 g
b10110101 /"
b10110101 4"
b10110101 D
b10110101 !
b10110101 b
b10110101 M
b10110101 8
b10110101 V
b10011 J
b10011 3
b10011 <"
b0 G
b0 "
b0 c
0F"
0*
0E"
0(
1J"
17
b10110101 C"
b10110101 &
b10110101 B
b1 D"
b1 '
b1 Y
b1 M"
b0 :
b0 F
b0 X
b1 ?
b1 a
b101 B"
b101 #
b101 d
b10011 4
b10011 E
b10011 H
b10011 L
b101000110110101 ?"
b101000110110101 0
b101000110110101 A"
b0 3"
b10000 2"
b10000 :"
b10010 ="
b10010 5
b10010 >"
1%
#310
0%
#315
b10110101 M
b10110101 8
b10110101 V
b0 D
b0 !
b0 b
b0 S
b0 -
b0 O
b10110101 P
b10110101 ;
b10110101 K
b10100 J
b10100 3
b10100 <"
1H"
1/
0K"
0<
b0 C"
b0 &
b0 B
b0 D"
b0 '
b0 Y
b1001 B"
b1001 #
b1001 d
b10110101 e
b0 .
b0 Q
b0 -"
b10110101 $
b10110101 I
b10110101 N
b10110101 T
b10110101 g
b10110101 /"
b10110101 4"
b10100 4
b10100 E
b10100 H
b10100 L
b1001000100000000 ?"
b1001000100000000 0
b1001000100000000 A"
b10110101 G
b10110101 "
b10110101 c
b10011 ="
b10011 5
b10011 >"
b10001 :"
b0 3"
b10001 2"
b10110101 [
b10110101 :
b10110101 F
b10110101 X
1%
#320
0%
#325
b1 M
b1 8
b1 V
b1 P
b1 ;
b1 K
b1 e
b1 $
b1 I
b1 N
b1 T
b1 g
b1 /"
b1 4"
b10110100 D
b10110100 !
b10110100 b
b10101 J
b10101 3
b10101 <"
0H"
0/
1K"
1<
b10110100 C"
b10110100 &
b10110100 B
b1 D"
b1 '
b1 Y
b110 B"
b110 #
b110 d
b0 S
b0 -
b0 O
b10101 4
b10101 E
b10101 H
b10101 L
b110000110110100 ?"
b110000110110100 0
b110000110110100 A"
b1 j
b0 .
b0 Q
b0 -"
b0 3"
b10010 2"
b10010 :"
b10100 ="
b10100 5
b10100 >"
1%
#330
0%
#335
b0 M
b0 8
b0 V
b100001 D
b100001 !
b100001 b
0f
0@
b1 S
b1 -
b1 O
b0 P
b0 ;
b0 K
b10110 J
b10110 3
b10110 <"
0K"
0<
b100001 C"
b100001 &
b100001 B
b0 D"
b0 '
b0 Y
b111 B"
b111 #
b111 d
b0 e
b1 .
b1 Q
b1 -"
b0 $
b0 I
b0 N
b0 T
b0 g
b0 /"
b0 4"
b10110 4
b10110 E
b10110 H
b10110 L
b111000100100001 ?"
b111000100100001 0
b111000100100001 A"
b1 G
b1 "
b1 c
b10101 ="
b10101 5
b10101 >"
b10011 :"
b0 3"
b10011 2"
b1 [
b1 :
b1 F
b1 X
1%
#340
0%
#345
b101000 M
b101000 8
b101000 V
b1011 S
b1011 -
b1011 O
b101000 P
b101000 ;
b101000 K
b101000 D
b101000 !
b101000 b
1f
1@
b101000 e
b1011 .
b1011 Q
b1011 -"
b101000 $
b101000 I
b101000 N
b101000 T
b101000 g
b101000 /"
b101000 4"
b10111 J
b10111 3
b10111 <"
b10111 G
b10111 "
b10111 c
0J"
07
1K"
1<
b101000 C"
b101000 &
b101000 B
b1111 D"
b1111 '
b1111 Y
b0 M"
b0 ?
b0 a
b1100 B"
b1100 #
b1100 d
b10111 4
b10111 E
b10111 H
b10111 L
b1100001010001111 ?"
b1100001010001111 0
b1100001010001111 A"
b0 3"
b10100 2"
b10100 :"
b10110 ="
b10110 5
b10110 >"
0@"
0A
1%
#350
0%
#355
b1 S
b1 -
b1 O
b0 P
b0 ;
b0 K
0f
0@
b0 e
b1 .
b1 Q
b1 -"
b0 $
b0 I
b0 N
b0 T
b0 g
b0 /"
b0 4"
b0 D
b0 !
b0 b
b11000 M
b11000 8
b11000 V
b0 J
b0 3
b0 <"
b11000 G
b11000 "
b11000 c
1F"
1*
1E"
1(
b0 C"
b0 &
b0 B
b1010 B"
b1010 #
b1010 d
b11000 4
b11000 E
b11000 H
b11000 L
b1010000000001111 ?"
b1010000000001111 0
b1010000000001111 A"
1@"
1A
b10111 ="
b10111 5
b10111 >"
b10101 :"
b0 3"
b10101 2"
1%
#360
0%
#365
b0 S
b0 -
b0 O
b1 P
b1 ;
b1 K
1f
1@
b1 e
b0 .
b0 Q
b0 -"
b1 $
b1 I
b1 N
b1 T
b1 g
b1 /"
b1 4"
b1 D
b1 !
b1 b
b1 M
b1 8
b1 V
b1 J
b1 3
b1 <"
b1 G
b1 "
b1 c
0F"
0*
0E"
0(
1J"
17
b1 C"
b1 &
b1 B
b0 D"
b0 '
b0 Y
b1101 B"
b1101 #
b1101 d
b1 4
b1 E
b1 H
b1 L
b1101000000010000 ?"
b1101000000010000 0
b1101000000010000 A"
b0 3"
b10110 2"
b10110 :"
b0 ="
b0 5
b0 >"
0@"
0A
1%
#370
0%
#375
b10010101 M
b10010101 8
b10010101 V
b1 S
b1 -
b1 O
b10010101 P
b10010101 ;
b10010101 K
b10010100 D
b10010100 !
b10010100 b
b10010101 e
b1 .
b1 Q
b1 -"
b10010101 $
b10010101 I
b10010101 N
b10010101 T
b10010101 g
b10010101 /"
b10010101 4"
b10 J
b10 3
b10 <"
b10010100 C"
b10010100 &
b10010100 B
b1 D"
b1 '
b1 Y
b1 M"
b1 ?
b1 a
b101 B"
b101 #
b101 d
b10 4
b10 E
b10 H
b10 L
b101000110010100 ?"
b101000110010100 0
b101000110010100 A"
1@"
1A
b1 ="
b1 5
b1 >"
b10111 :"
b0 3"
b10111 2"
1%
#380
0%
#385
b1 M
b1 8
b1 V
b1 S
b1 -
b1 O
b1 P
b1 ;
b1 K
b0 D
b0 !
b0 b
b10010101 e
b1 .
b1 Q
b1 -"
b10010101 $
b10010101 I
b10010101 N
b10010101 T
b10010101 g
b10010101 /"
b10010101 4"
b11 J
b11 3
b11 <"
1G"
1+
b0 C"
b0 &
b0 B
b10 D"
b10 '
b10 Y
b1000 B"
b1000 #
b1000 d
b10010101 G
b10010101 "
b10010101 c
b11 4
b11 E
b11 H
b11 L
b1000000100000010 ?"
b1000000100000010 0
b1000000100000010 A"
b10010101 [
b10010101 :
b10010101 F
b10010101 X
b0 3"
b11000 2"
b11000 :"
b10 ="
b10 5
b10 >"
1%
#390
0%
#395
b0 M
b0 8
b0 V
b0 P
b0 ;
b0 K
b10110100 D
b10110100 !
b10110100 b
0f
0@
b0 e
b0 $
b0 I
b0 N
b0 T
b0 g
b0 /"
b0 4"
b100 J
b100 3
b100 <"
0G"
0+
0K"
0<
b10110100 C"
b10110100 &
b10110100 B
b0 D"
b0 '
b0 Y
b111 B"
b111 #
b111 d
b100 4
b100 E
b100 H
b100 L
b111000110110100 ?"
b111000110110100 0
b111000110110100 A"
b11 ="
b11 5
b11 >"
b11001 :"
b0 3"
b11001 2"
b1 \
1%
#400
0%
#405
b100101 M
b100101 8
b100101 V
b111 S
b111 -
b111 O
b100101 P
b100101 ;
b100101 K
b100101 D
b100101 !
b100101 b
1f
1@
b100101 e
b111 .
b111 Q
b111 -"
b100101 $
b100101 I
b100101 N
b100101 T
b100101 g
b100101 /"
b100101 4"
b101 J
b101 3
b101 <"
b101 G
b101 "
b101 c
0J"
07
1K"
1<
b100101 C"
b100101 &
b100101 B
b1111 D"
b1111 '
b1111 Y
b0 M"
b1 :
b1 F
b1 X
b0 ?
b0 a
b1100 B"
b1100 #
b1100 d
b101 4
b101 E
b101 H
b101 L
b1100001001011111 ?"
b1100001001011111 0
b1100001001011111 A"
b0 3"
b11010 2"
b11010 :"
b100 ="
b100 5
b100 >"
0@"
0A
1%
#410
0%
#415
b10010110 M
b10010110 8
b10010110 V
b101 S
b101 -
b101 O
b10010110 P
b10010110 ;
b10010110 K
b1 D
b1 !
b1 b
b10010110 e
b101 .
b101 Q
b101 -"
b10010110 $
b10010110 I
b10010110 N
b10010110 T
b10010110 g
b10010110 /"
b10010110 4"
b110 J
b110 3
b110 <"
b10010101 G
b10010101 "
b10010101 c
1J"
17
b1 C"
b1 &
b1 B
b1 D"
b1 '
b1 Y
b1 M"
b10010101 :
b10010101 F
b10010101 X
b1 ?
b1 a
b101 B"
b101 #
b101 d
b110 4
b110 E
b110 H
b110 L
b101000100000001 ?"
b101000100000001 0
b101000100000001 A"
1@"
1A
b101 ="
b101 5
b101 >"
b11011 :"
b0 3"
b11011 2"
1%
#420
0%
